Scenario,Based on 2015 data
2015 Baseline,Based on 2015 data
2045 Business-as-Usual Scenario ,Projections based on historic trends and relatively certain future developments as well as conservative integration of connected and autonomous vehicles
2045 Preferred Scenario ,"Projections based on relatively certain future developments as well as Federal, State, and local goals"
2045 Preferred Scenario + High speed rail,Projections based on the 2045 Preferred Scenario as well as high speed rail construction by 2040 
