, 0-9,10-19,20-29,30-39,40-49,50-59,60-69,70-79,80+
Walk,9,38,67,63,37,32,19,14,2
Wheelchair,0,0,0,1,0,1,0,0,0
Bike,8,32,31,30,19,17,11,4,0
Motor Vehicle,15,71,93,103,83,56,51,22,7
Ride Share,0,3,15,6,4,1,1,0,1
Bus,5,12,37,23,11,14,8,7,0
Skate,0,2,2,0,0,0,0,0,0
