,2011-2013,2012-2014,2013-2015,2014-2016,2015-2017,2011,2012,2013,2014,2015,2016,2017
Champaign,10.1,10.2,9.8,9,7.9,10.6,9.7,9.9,10.9,8.6,7.6,7.4
Bondville,9.6,9.5,9.2,8.6,7.8,10.2,8.9,9.7,10,8.5,7.3,7.7
