Year,Willard Flights,Change in Number of Flights,Willard Enplanements,Change in Number of Enplanements
2017,2670,20.3%,97502,12.0%
2016,2220,0.2%,87093,-0.6%
2015,2215,-3.2%,87584,-5.5%
2014,2288,2.6%,92724,11.7%
2013,2229,-1.1%,82996,-1.0%
2012,2253,0.0%,83796,3.3%
2011,2253,-12.6%,81100,-2.7%
2010,2577,-13.7%,83391,-2.8%
