Path Type / Mileage,2010,2013,2014,2015,2016,2017,2018,Change from Previous LRTP,Change since 2010
Shared-Use Path,55.1,63.8,64.7,71.1,71.3,73.6,77.8,22%,41%
Bike Path,7.9,7.7,7.7,7.6,7.6,7.6,7.1,-8%,-10%
Bike Lanes,11.8,20.3,21.4,22.9,23.5,25.7,27,33%,129%
Sharrows,1.4,4.5,4.9,5.2,5.2,5.8,6.7,49%,379%
Shared Bike/Parking Lanes,0,0.8,0.8,0.8,0.8,1,1,25%,N/A
Bike Route,0,4.3,4.3,4.3,4.3,4.3,4.3,0%,N/A
Total,76.2,101.4,103.8,111.9,112.7,118,123.9,22%,63%
