﻿Trip Purpose,Champaign County TDM All Auto,Champaign County TDM Shared Ride,2009 NHTS All Auto,2009 NHTS Shared Ride
Home Based Work,1.10,2.10,1.10,2.42
Home Based University,1.20,2.20,1.14,2.35
Home Based School K-12,1.20,2.90,1.14,2.35
Home Based Shopping,1.40,2.30,1.75,2.71
Home Based Other,1.70,2.40,1.75,2.71
Non Home Based,1.60,2.40,1.66,2.75
