﻿Trip Purpose,Urban TAZs,Rural TAZs,County Average
Home Based Work,3.11,6.77,4.02
Home Based School,4.09,5.19,5.82
Home Based Shopping,3.62,7.54,4.71
Home Based Other,9.21,3.12,4.90
None Home Based,2.70,4.36,3.21
