﻿Screenline Traffic (in 1000's),Maximum Desirable Deviation,Screenline Traffic (in 1000's),Modeled %Deviation
18,53,75.95,3.69
20,44,107.31,21.30
40,38,67.79,6.43
60,32,41.35,15.30
80,28,140.75,20.70
100,24,129.34,13.70
120,22,87.55,1.33
140,21,203.98,14.40
160,20,26.96,9.22
180,19,38.91,13.00
,,52.54,21.90
,,39.08,21.20
