﻿Link Class,Facility Type,Area,Lanes,Free Flow Speed (mph),Alpha (α),Beta (β)
1,7,Any,Any,> 65,0.32,7.0
2,7,Any,Any,65,0.25,9.0
3,7,Any,Any,60,0.18,8.5
4,7,Any,Any,55,0.10,10.0
5, 5 - 6,Any,Any,Any ,0.13,5.0
6,4,5,> 1,50 - 55,0.07,6.0
7,4,5,1,50 - 55,0.34,4.0
8,4, 2 - 4,Any,35 - 50,0.70,5.0
9,4,1,Any,35,1.40,5.0
10, 0 - 3,5,Any,25 - 55,0.38,5.0
11, 0 - 3,4,Any,25 - 45,0.70,5.0
12, 0 - 3, 2 - 3,Any,15 - 35,1.00,5.0
13, 0 - 3,1,Any,15 - 35,1.50,5.0
